…
::: {.cell hash='index_cache/revealjs/unnamed-chunk-27_529a80798c6d4448a9e8eef00d0c6bdb'}

:::

::: {.cell hash='index_cache/revealjs/unnamed-chunk-28_554caaba0359ef251cb549945e10473b'}

```{.r .cell-code}
library(tsibble)
library(fable)
tourism
```

::: {.cell-output .cell-output-stdout}
```
# A tsibble: 24,320 x 5 [1Q]
# Key:       Region, State, Purpose [304]
   Quarter Region   State           Purpose  Trips
     <qtr> <chr>    <chr>           <chr>    <dbl>
 1 1998 Q1 Adelaide South Australia Business  135.
 2 1998 Q2 Adelaide South Australia Business  110.
 3 1998 Q3 Adelaide South Australia Business  166.
 4 1998 Q4 Adelaide South Australia Business  127.
 5 1999 Q1 Adelaide South Australia Business  137.
 6 1999 Q2 Adelaide South Australia Business  200.
 7 1999 Q3 Adelaide South Australia Business  169.
 8 1999 Q4 Adelaide South Australia Business  134.
 9 2000 Q1 Adelaide South Australia Business  154.
10 2000 Q2 Adelaide South Australia Business  169.
# i 24,310 more rows
```
…
::: {.cell hash='index_cache/revealjs/unnamed-chunk-29_8cfcd8aad8be1ab8e1237ee616a19a7f'}

```{.r .cell-code}
tourism |> 
  aggregate_key(
    Purpose * (State / Region),
    Trips = sum(Trips)
  )
```

::: {.cell-output .cell-output-stdout}
```
# A tsibble: 34,000 x 5 [1Q]
# Key:       Purpose, State, Region [425]
   Quarter Purpose      State        Region        Trips
     <qtr> <chr*>       <chr*>       <chr*>        <dbl>
 1 1998 Q1 <aggregated> <aggregated> <aggregated> 23182.
 2 1998 Q2 <aggregated> <aggregated> <aggregated> 20323.
 3 1998 Q3 <aggregated> <aggregated> <aggregated> 19827.
 4 1998 Q4 <aggregated> <aggregated> <aggregated> 20830.
 5 1999 Q1 <aggregated> <aggregated> <aggregated> 22087.
 6 1999 Q2 <aggregated> <aggregated> <aggregated> 21458.
 7 1999 Q3 <aggregated> <aggregated> <aggregated> 19914.
 8 1999 Q4 <aggregated> <aggregated> <aggregated> 20028.
 9 2000 Q1 <aggregated> <aggregated> <aggregated> 22339.
10 2000 Q2 <aggregated> <aggregated> <aggregated> 19941.
# i 33,990 more rows
```
…
::: {.cell hash='index_cache/revealjs/unnamed-chunk-30_8954efa8bfd759e15bd2b2b564150465'}

```{.r .cell-code}
tourism |> 
  aggregate_key(
    Purpose * (State / Region),
    Trips = sum(Trips)
  ) |> 
  key_data()
```

::: {.cell-output .cell-output-stdout}
```
# A tibble: 425 x 4
   Purpose  State           Region                 .rows
   <chr*>   <chr*>          <chr*>                 <lis>
 1 Business ACT             Canberra                [80]
 2 Business ACT             <aggregated>            [80]
 3 Business New South Wales Blue Mountains          [80]
 4 Business New South Wales Capital Country         [80]
 5 Business New South Wales Central Coast           [80]
 6 Business New South Wales Central NSW             [80]
 7 Business New South Wales Hunter                  [80]
 8 Business New South Wales New England North West  [80]
 9 Business New South Wales North Coast NSW         [80]
10 Business New South Wales Outback NSW             [80]
# i 415 more rows
```
…
```{.r .cell-code}
tourism |> 
  aggregate_key(
    Purpose,
    Trips = sum(Trips)
  ) |> 
  stretch_tsibble(.step = 4, .init = 60) |> 
  model(ets = ETS(Trips)) |> 
  reconcile(ets_coherent = min_trace(ets)) |> 
  forecast(h = "1 year")
```

::: {.cell-output .cell-output-stdout}
```
# A fable: 240 x 6 [1Q]
# Key:     .id, Purpose, .model [60]
     .id Purpose  .model       Quarter            Trips
   <int> <chr*>   <chr>          <qtr>           <dist>
 1     1 Business ets          2013 Q1   N(3135, 46032)
 2     1 Business ets          2013 Q2   N(3832, 73712)
 3     1 Business ets          2013 Q3   N(4158, 93320)
 4     1 Business ets          2013 Q4   N(3781, 88006)
 5     1 Business ets_coherent 2013 Q1   N(3159, 45373)
 6     1 Business ets_coherent 2013 Q2   N(3848, 69353)
 7     1 Business ets_coherent 2013 Q3   N(4177, 86871)
 8     1 Business ets_coherent 2013 Q4   N(3795, 83437)
 9     1 Holiday  ets          2013 Q1 N(10442, 211377)
10     1 Holiday  ets          2013 Q2  N(8698, 146661)
# i 230 more rows
# i 1 more variable: .mean <dbl>
```
…
